@startuml

title __GUI's Class Diagram__\n

  namespace fr.cnam.foad.nfa035.badges.gui {
    class fr.cnam.foad.nfa035.badges.gui.BadgeWalletGUI {
        ~ tableList : List<DigitalBadge>
        {static} - RESOURCES_PATH : String
        - button1 : JButton
        - panelBas : JPanel
        - panelHaut : JPanel
        - panelImageContainer : JPanel
        - panelParent : JPanel
        - scrollBas : JScrollPane
        - scrollHaut : JScrollPane
        - table1 : JTable
        + BadgeWalletGUI()
        + getIcon()
        {static} + main()
        - createUIComponents()
        - setCreatedUIFields()
    }
  }
  

  fr.cnam.foad.nfa035.badges.gui.BadgeWalletGUI o-- fr.cnam.foad.nfa035.badges.wallet.model.DigitalBadge : badge
  fr.cnam.foad.nfa035.badges.gui.BadgeWalletGUI o-- fr.cnam.foad.nfa035.badges.gui.components.BadgePanel : badgePanel
  fr.cnam.foad.nfa035.badges.gui.BadgeWalletGUI o-- fr.cnam.foad.nfa035.badges.wallet.dao.DirectAccessBadgeWalletDAO : dao


right footer


PlantUML diagram generated by SketchIt! (https://bitbucket.org/pmesmeur/sketch.it)
For more information about this tool, please contact philippe.mesmeur@gmail.com
endfooter

@enduml
