@startuml

title __MODEL's Class Diagram__\n

  namespace fr.cnam.foad.nfa035.badges.gui {
    namespace model {
      class fr.cnam.foad.nfa035.badges.gui.model.BadgesModel {
          - badges : List<DigitalBadge>
          - entetes : String[]
          {static} - serialVersionUID : long
          + BadgesModel()
          + getColumnClass()
          + getColumnCount()
          + getColumnName()
          + getRowCount()
          + getValueAt()
      }
    }
  }
  

  namespace fr.cnam.foad.nfa035.badges.gui {
    namespace model {
      class fr.cnam.foad.nfa035.badges.gui.model.TableModelCreator {
          {static} + createTableModel()
      }
    }
  }
  

  fr.cnam.foad.nfa035.badges.gui.model.BadgesModel -up-|> javax.swing.table.AbstractTableModel


right footer


PlantUML diagram generated by SketchIt! (https://bitbucket.org/pmesmeur/sketch.it)
For more information about this tool, please contact philippe.mesmeur@gmail.com
endfooter

@enduml
